%TF.GenerationSoftware,KiCad,Pcbnew,5.1.8+dfsg1-1+b1*%
%TF.CreationDate,2021-07-06T16:13:43-05:00*%
%TF.ProjectId,mqtt-thermocouple,6d717474-2d74-4686-9572-6d6f636f7570,A*%
%TF.SameCoordinates,Original*%
%TF.FileFunction,Profile,NP*%
%FSLAX46Y46*%
G04 Gerber Fmt 4.6, Leading zero omitted, Abs format (unit mm)*
G04 Created by KiCad (PCBNEW 5.1.8+dfsg1-1+b1) date 2021-07-06 16:13:43*
%MOMM*%
%LPD*%
G01*
G04 APERTURE LIST*
%TA.AperFunction,Profile*%
%ADD10C,0.050000*%
%TD*%
G04 APERTURE END LIST*
D10*
X50800000Y-109220000D02*
X127000000Y-109220000D01*
X43180000Y-50800000D02*
X43180000Y-101600000D01*
X127000000Y-43180000D02*
X50800000Y-43180000D01*
X134620000Y-50800000D02*
X134620000Y-101600000D01*
X134620000Y-101600000D02*
G75*
G02*
X127000000Y-109220000I-7620000J0D01*
G01*
X50800000Y-109220000D02*
G75*
G02*
X43180000Y-101600000I0J7620000D01*
G01*
X43180000Y-50800000D02*
G75*
G02*
X50800000Y-43180000I7620000J0D01*
G01*
X127000000Y-43180000D02*
G75*
G02*
X134620000Y-50800000I0J-7620000D01*
G01*
M02*
