(module K1X-FEMX-CON-FP-X-PCCX (layer F.Cu) (tedit 60DF3D84)
  (fp_text reference REF** (at 0 0.5) (layer F.SilkS)
    (effects (font (size 1 1) (thickness 0.15)))
  )
  (fp_text value K1X-FEMX-CON-FP-X-PCCX (at 0 15.24) (layer F.Fab)
    (effects (font (size 1 1) (thickness 0.15)))
  )
  (fp_line (start -8.001 12.7) (end 8.001 12.7) (layer F.SilkS) (width 0.15))
  (fp_line (start -8.001 -12.7) (end 8.001 -12.7) (layer F.SilkS) (width 0.15))
  (fp_line (start -8.001 -12.7) (end -8.001 12.7) (layer F.SilkS) (width 0.15))
  (fp_line (start 8.001 -12.7) (end 8.001 12.7) (layer F.SilkS) (width 0.15))
  (fp_text user + (at 3.81 10.16) (layer F.SilkS)
    (effects (font (size 2.54 2.54) (thickness 0.635)))
  )
  (fp_text user - (at -3.81 10.16) (layer F.SilkS)
    (effects (font (size 2.54 2.54) (thickness 0.635)))
  )
  (pad 1 thru_hole circle (at 3.9497 -3.302) (size 1.524 1.524) (drill 0.762) (layers *.Cu *.Mask))
  (pad 2 thru_hole circle (at -3.9497 -3.302) (size 1.524 1.524) (drill 0.762) (layers *.Cu *.Mask))
  (pad "" np_thru_hole circle (at 0 5.715) (size 1.905 1.905) (drill 1.905) (layers *.Cu *.Mask))
)
